D:\Jitender\NAGP\Year-2\Workshops\JUNIT\eBroker\src\main\java\com\Trader\eBroker\service\EquityService.java
D:\Jitender\NAGP\Year-2\Workshops\JUNIT\eBroker\src\main\java\com\Trader\eBroker\controller\TraderController.java
D:\Jitender\NAGP\Year-2\Workshops\JUNIT\eBroker\src\main\java\com\Trader\eBroker\service\impl\EquityServiceImpl.java
D:\Jitender\NAGP\Year-2\Workshops\JUNIT\eBroker\src\main\java\com\Trader\eBroker\controller\EquityController.java
D:\Jitender\NAGP\Year-2\Workshops\JUNIT\eBroker\src\main\java\com\Trader\eBroker\utils\TradingTimeCalculatorUtil.java
D:\Jitender\NAGP\Year-2\Workshops\JUNIT\eBroker\src\main\java\com\Trader\eBroker\repository\TraderEquityRepository.java
D:\Jitender\NAGP\Year-2\Workshops\JUNIT\eBroker\src\main\java\com\Trader\eBroker\entity\TraderEquity.java
D:\Jitender\NAGP\Year-2\Workshops\JUNIT\eBroker\src\main\java\com\Trader\eBroker\EBrokerApplication.java
D:\Jitender\NAGP\Year-2\Workshops\JUNIT\eBroker\src\main\java\com\Trader\eBroker\repository\TraderRepository.java
D:\Jitender\NAGP\Year-2\Workshops\JUNIT\eBroker\src\main\java\com\Trader\eBroker\entity\Trader.java
D:\Jitender\NAGP\Year-2\Workshops\JUNIT\eBroker\src\main\java\com\Trader\eBroker\repository\EquityRepository.java
D:\Jitender\NAGP\Year-2\Workshops\JUNIT\eBroker\src\main\java\com\Trader\eBroker\service\impl\TraderServiceImpl.java
D:\Jitender\NAGP\Year-2\Workshops\JUNIT\eBroker\src\main\java\com\Trader\eBroker\entity\Equity.java
D:\Jitender\NAGP\Year-2\Workshops\JUNIT\eBroker\src\main\java\com\Trader\eBroker\service\TraderService.java
